$date
	Sat Mar  9 21:05:41 2019
$end
$version
	Icarus Verilog
$end
$timescale
	1s
$end
$scope module gshare_tb $end
$var wire 1 ! predicted $end
$var reg 1 " actual $end
$var reg 1 # clk $end
$var reg 1 $ gr $end
$var reg 32 % pc [31:0] $end
$var reg 1 & reset $end
$var reg 1 ' update $end
$scope module dut $end
$var wire 1 " actual $end
$var wire 1 # clk $end
$var wire 1 ( gh $end
$var wire 1 $ pc $end
$var wire 1 ! predicted $end
$var wire 1 & reset $end
$var wire 1 ' update $end
$var wire 3 ) state [2:0] $end
$var reg 2 * BNT [1:0] $end
$var reg 2 + BT [1:0] $end
$var reg 3 , LNT [2:0] $end
$var reg 3 - LT [2:0] $end
$var reg 3 . SNT [2:0] $end
$var reg 3 / ST [2:0] $end
$var reg 3 0 new_state [2:0] $end
$var reg 1 1 predict_reg $end
$var reg 2 2 set_new_state [1:0] $end
$scope begin $ivl_foreach0 $end
$var integer 32 3 i [31:0] $end
$upscope $end
$upscope $end
$upscope $end
$enddefinitions $end
#0
$dumpvars
b10 3
b1 2
01
bx 0
b11 /
b0 .
b10 -
b1 ,
b1 +
b0 *
b1 )
0(
0'
1&
b0 %
0$
0#
x"
0!
$end
#5
b1 0
b0 2
1#
#10
0#
0&
#15
1#
#20
0#
1'
1"
#25
1!
11
b10 )
b10 0
1#
#30
0#
#35
b11 )
b11 0
1#
#40
0#
0"
#45
b10 )
b10 0
1#
#50
0#
#55
0!
01
b1 )
b1 0
1#
#60
0#
#65
b0 )
b0 0
1#
#70
b1 )
0#
0'
1$
#75
1#
#80
0#
1'
1"
#85
1!
11
b10 )
b10 0
1#
#90
0#
#95
b11 )
b11 0
1#
#100
0#
#105
1#
#110
0#
0'
#115
1#
#120
