counter output
==============
t=10 tc=0
t=35 tc=1
t=55 tc=0
t=75 tc=1

cordic output
==============
t=175 sin=0004 cos=3fff
t=355 sin=35d7 cos=2296
// time doesn't have to match and precision of sin and cos within
// 8 significant bits accepted
// the range of acceptable answers is
t=xxx sin in [ff01-00ff] cos in [3f01-40ff]
t=xxx sin in [34db-36d9] cos in [2195,2393]

gshare output
==============
t= 0: counter[0] 01 counter[1] 01
t= 5: counter[0] 01 counter[1] 01
t=25: counter[0] 10 counter[1] 01
t=35: counter[0] 11 counter[1] 01
t=45: counter[0] 10 counter[1] 01
t=55: counter[0] 01 counter[1] 01
t=65: counter[0] 00 counter[1] 01
t=85: counter[0] 00 counter[1] 10
t=95: counter[0] 00 counter[1] 11
